Chapter 2 Applying the Scientific Method | bookdown: Authoring Books and Technical Documents with R Markdown
…
d.bw2 %>% 
  group_by(VID) %>% 
  summarise(mean = mean(value),
            SD = sd(value),
            min = min(value),
            max = max(value))

## # A tibble: 78 × 5
##      VID  mean    SD   min   max
##    <dbl> <dbl> <dbl> <dbl> <dbl>
##  1   248  700.  69.3   574   806
##  2   249  550.  57.6   463   670
##  3   276  507.  69.7   389   636
##  4   298  542.  61.6   436   650
##  5   322  583.  77.8   436   702
##  6   346  458.  45.1   398   560
##  7   364  549.  71.8   420   676
##  8   367  427.  54.7   352   518
##  9   453  541.  61.7   429   650
## 10   472  520.  60.8   402   628
## # ℹ 68 more rows
…
