Chapter 3 Standard Statistics | An introduction to Quantitative Thinking
…
names(d.days)

## [1] "Day"

d.bw2 = merge.data.table(d.daysvid, d.bw, by = c('VID','Day'), all = T)

3.5 Anovas

heifer

## # A tibble: 77 × 21
##      VID   Pen CreepTrt WeanTrt D_42_BW Creep_Gain Shipping_Loss Day56_InitialBW
##    <dbl> <dbl> <chr>    <chr>     <dbl>      <dbl>         <dbl>           <dbl>
##  1   248     8 A        A          261.       34.5         -5.44            287.
##  2   249     8 A        A          210.       23.1         -4.54            223.
##  3   276     6 B        A          177.       29.0         -3.63            200.
##  4   298     6 B        A          198.       30.8         -6.80            218.
##  5   322     8 A        A          198.       34.5         -3.63            233.
##  6   346     6 B        A          189.       13.6         -2.27            185.
##  7   364     5 A        B          191.       40.8        -14.1             217.
##  8   367     7 B        B          160        17.2         -8.16            164.
##  9   453     6 B        A          195        35.8        -12.2             218.
## 10   472     5 A        B          183.       37.6         -4.99            211.
## # ℹ 67 more rows
## # ℹ 13 more variables: Day56_ADG <dbl>, Day56_MMBW <dbl>, Day56_DMI <dbl>,
## #   Day56_Residual <dbl>, D_1_EV <dbl>, AVE_TTB <dbl>, BVFREQ <dbl>,
## #   BVDUR <dbl>, BVFREQsd <dbl>, BVDURsd <dbl>, uDMI <dbl>, sdDMI <dbl>,
## #   cvDMI <dbl>
…
